^C:\USERS\IVAN\DOCUMENTS\DEMOSCENENEW\ASSIMP\CONTRIB\IRRXML\IRRXML.CPP
C:\USERS\IVAN\DOCUMENTS\DEMOSCENENEW\BUILD\ASSIMP\CONTRIB\IRRXML\IRRXML.DIR\DEBUG\IRRXML.PDB
C:\USERS\IVAN\DOCUMENTS\DEMOSCENENEW\BUILD\ASSIMP\CONTRIB\IRRXML\IRRXML.DIR\DEBUG\IRRXML.OBJ
