^C:\USERS\IVAN\DOCUMENTS\DEMOSCENENEW\GLEW\SRC\GLEW.C
C:\USERS\IVAN\DOCUMENTS\DEMOSCENENEW\BUILD\GLEW\LIBGLEWMX_STATIC.DIR\DEBUG\LIBGLEWMX_STATIC.PDB
C:\USERS\IVAN\DOCUMENTS\DEMOSCENENEW\BUILD\GLEW\LIBGLEWMX_STATIC.DIR\DEBUG\GLEW.OBJ
