#Command:  
^C:\USERS\IVAN\DOCUMENTS\DEMOSCENENEW\BUILD\CMAKEFILES\3.8.0-RC2\COMPILERIDC\DEBUG\CMAKECCOMPILERID.OBJ
C:\PROGRAM FILES (X86)\MICROSOFT VISUAL STUDIO\2017\PROFESSIONAL\VC\TOOLS\MSVC\14.10.25017\BIN\HOSTX86\X86\MICROSOFT.DIAGNOSTICS.TRACING.EVENTSOURCE.DLL
C:\WINDOWS\MICROSOFT.NET\ASSEMBLY\GAC_MSIL\SYSTEM.RUNTIME\V4.0_4.0.0.0__B03F5F7F11D50A3A\SYSTEM.RUNTIME.DLL
C:\WINDOWS\MICROSOFT.NET\ASSEMBLY\GAC_MSIL\SYSTEM.REFLECTION\V4.0_4.0.0.0__B03F5F7F11D50A3A\SYSTEM.REFLECTION.DLL
C:\WINDOWS\MICROSOFT.NET\ASSEMBLY\GAC_MSIL\SYSTEM.REFLECTION.EXTENSIONS\V4.0_4.0.0.0__B03F5F7F11D50A3A\SYSTEM.REFLECTION.EXTENSIONS.DLL
