#Command:  
^C:\USERS\IVAN\DOCUMENTS\DEMOSCENENEW\BUILD\CMAKEFILES\3.8.0-RC2\COMPILERIDC\DEBUG\CMAKECCOMPILERID.OBJ
C:\WINDOWS\ASSEMBLY\NATIVEIMAGES_V4.0.30319_32\SYSTEM.CONFIGURATION\5671AC347AF2295F3CC70BA8EB8F0CB6\SYSTEM.CONFIGURATION.NI.DLL
C:\WINDOWS\ASSEMBLY\NATIVEIMAGES_V4.0.30319_32\SYSTEM.CONFIGURATION\5671AC347AF2295F3CC70BA8EB8F0CB6\SYSTEM.CONFIGURATION.NI.DLL.AUX
C:\WINDOWS\ASSEMBLY\NATIVEIMAGES_V4.0.30319_32\SYSTEM.XML\AAB6BA2D270A3A0FBA60475F7461D92A\SYSTEM.XML.NI.DLL
C:\WINDOWS\ASSEMBLY\NATIVEIMAGES_V4.0.30319_32\SYSTEM.XML\AAB6BA2D270A3A0FBA60475F7461D92A\SYSTEM.XML.NI.DLL.AUX
C:\WINDOWS\MICROSOFT.NET\ASSEMBLY\GAC_MSIL\SYSTEM.DATA.SQLXML\V4.0_4.0.0.0__B77A5C561934E089\SYSTEM.DATA.SQLXML.DLL
C:\WINDOWS\MICROSOFT.NET\FRAMEWORK\V4.0.30319\CONFIG\MACHINE.CONFIG
C:\USERS\IVAN\APPDATA\LOCAL\MICROSOFT\WINDOWS\INETCACHE\IE\GMRKB33F\DYNTELCONFIG[1].CACHE
C:\PROGRAM FILES (X86)\MICROSOFT VISUAL STUDIO\2017\PROFESSIONAL\VC\TOOLS\MSVC\14.10.25017\BIN\HOSTX86\X86\NEWTONSOFT.JSON.DLL
C:\WINDOWS\ASSEMBLY\NATIVEIMAGES_V4.0.30319_32\NEWTONSOFT.JSON\6C0EBEC56FC14A5FE9CEA8BCA21B6CB8\NEWTONSOFT.JSON.NI.DLL
C:\WINDOWS\ASSEMBLY\NATIVEIMAGES_V4.0.30319_32\NEWTONSOFT.JSON\6C0EBEC56FC14A5FE9CEA8BCA21B6CB8\NEWTONSOFT.JSON.NI.DLL.AUX
C:\WINDOWS\ASSEMBLY\NATIVEIMAGES_V4.0.30319_32\NEWTONSOFT.JSON\6C0EBEC56FC14A5FE9CEA8BCA21B6CB8\NEWTONSOFT.JSON.NI.DLL
C:\WINDOWS\ASSEMBLY\NATIVEIMAGES_V4.0.30319_32\NEWTONSOFT.JSON\6C0EBEC56FC14A5FE9CEA8BCA21B6CB8\NEWTONSOFT.JSON.NI.DLL.AUX
C:\PROGRAM FILES (X86)\MICROSOFT VISUAL STUDIO\2017\PROFESSIONAL\VC\TOOLS\MSVC\14.10.25017\BIN\HOSTX86\X86\NEWTONSOFT.JSON.DLL
C:\WINDOWS\MICROSOFT.NET\ASSEMBLY\GAC_MSIL\SYSTEM.NUMERICS\V4.0_4.0.0.0__B77A5C561934E089\SYSTEM.NUMERICS.DLL
C:\WINDOWS\MICROSOFT.NET\ASSEMBLY\GAC_MSIL\SYSTEM.COMPONENTMODEL.DATAANNOTATIONS\V4.0_4.0.0.0__31BF3856AD364E35\SYSTEM.COMPONENTMODEL.DATAANNOTATIONS.DLL
C:\WINDOWS\MICROSOFT.NET\ASSEMBLY\GAC_MSIL\SYSTEM.RUNTIME.SERIALIZATION\V4.0_4.0.0.0__B77A5C561934E089\SYSTEM.RUNTIME.SERIALIZATION.DLL
C:\WINDOWS\ASSEMBLY\NATIVEIMAGES_V4.0.30319_32\SYSTEM.RUNTEB92AA12#\E250D3A49665685DB2ECCC68CC6B4D1A\SYSTEM.RUNTIME.SERIALIZATION.NI.DLL
C:\WINDOWS\ASSEMBLY\NATIVEIMAGES_V4.0.30319_32\SYSTEM.RUNTEB92AA12#\E250D3A49665685DB2ECCC68CC6B4D1A\SYSTEM.RUNTIME.SERIALIZATION.NI.DLL.AUX
C:\WINDOWS\MICROSOFT.NET\ASSEMBLY\GAC_MSIL\SYSTEM.RUNTIME.SERIALIZATION\V4.0_4.0.0.0__B77A5C561934E089\SYSTEM.RUNTIME.SERIALIZATION.DLL
C:\WINDOWS\MICROSOFT.NET\ASSEMBLY\GAC_MSIL\SYSTEM.SERVICEMODEL.INTERNALS\V4.0_4.0.0.0__31BF3856AD364E35\SYSTEM.SERVICEMODEL.INTERNALS.DLL
C:\WINDOWS\MICROSOFT.NET\ASSEMBLY\GAC_MSIL\SMDIAGNOSTICS\V4.0_4.0.0.0__B77A5C561934E089\SMDIAGNOSTICS.DLL
C:\WINDOWS\MICROSOFT.NET\ASSEMBLY\GAC_MSIL\SYSTEM.XML.LINQ\V4.0_4.0.0.0__B77A5C561934E089\SYSTEM.XML.LINQ.DLL
C:\WINDOWS\ASSEMBLY\NATIVEIMAGES_V4.0.30319_32\SYSTEM.XML.LINQ\0AF03BD2C0D36A87D9361E5682F81709\SYSTEM.XML.LINQ.NI.DLL
C:\WINDOWS\ASSEMBLY\NATIVEIMAGES_V4.0.30319_32\SYSTEM.XML.LINQ\0AF03BD2C0D36A87D9361E5682F81709\SYSTEM.XML.LINQ.NI.DLL.AUX
C:\WINDOWS\MICROSOFT.NET\ASSEMBLY\GAC_MSIL\SYSTEM.XML.LINQ\V4.0_4.0.0.0__B77A5C561934E089\SYSTEM.XML.LINQ.DLL
C:\WINDOWS\MICROSOFT.NET\ASSEMBLY\GAC_32\SYSTEM.DATA\V4.0_4.0.0.0__B77A5C561934E089\SYSTEM.DATA.DLL
