#Command:  
^C:\USERS\IVAN\DOCUMENTS\DEMOSCENENEW\BUILD\CMAKEFILES\3.8.0-RC2\COMPILERIDC\DEBUG\CMAKECCOMPILERID.OBJ
C:\WINDOWS\SYSTEM32\DNSAPI.DLL
C:\WINDOWS\SYSTEM32\WINDOWSPOWERSHELL\V1.0\POWERSHELL.EXE
