#Command:  
^C:\USERS\IVAN\DOCUMENTS\DEMOSCENENEW\BUILD\CMAKEFILES\3.8.0-RC2\COMPILERIDC\DEBUG\CMAKECCOMPILERID.OBJ
C:\USERS\IVAN\APPDATA\LOCAL\MICROSOFT\APPLICATIONINSIGHTS\VSTELAIF-312CBD79-9DBB-4C48-A7DA-3CC2A931CB70\20170722192925_43C1295055224E8FAAD5AD5524A0D4A6.TMP
