#Command:  
^C:\USERS\IVAN\DOCUMENTS\DEMOSCENENEW\BUILD\CMAKEFILES\3.8.0-RC2\COMPILERIDC\DEBUG\CMAKECCOMPILERID.OBJ
C:\USERS\IVAN\APPDATA\LOCAL\MICROSOFT\WINDOWS\INETCACHE\IE\GMRKB33F\DYNTELCONFIG[1].CACHE
