^C:\USERS\IVAN\DOCUMENTS\DEMOSCENENEW\ASSIMP\CONTRIB\ZLIB\ADLER32.C
/c /IC:\USERS\IVAN\DOCUMENTS\DEMOSCENENEW\ASSIMP\. /IC:\USERS\IVAN\DOCUMENTS\DEMOSCENENEW\BUILD\ASSIMP /IC:\USERS\IVAN\DOCUMENTS\DEMOSCENENEW\BUILD\ASSIMP\INCLUDE /IC:\USERS\IVAN\DOCUMENTS\DEMOSCENENEW\ASSIMP\INCLUDE /IC:\USERS\IVAN\DOCUMENTS\DEMOSCENENEW\ASSIMP\CONTRIB\ZLIB /IC:\USERS\IVAN\DOCUMENTS\DEMOSCENENEW\BUILD\ASSIMP\CONTRIB\ZLIB /IC:\USERS\IVAN\DOCUMENTS\DEMOSCENENEW /nologo /W3 /WX- /diagnostics:classic /O2 /Ob2 /Oy- /D WIN32 /D _WINDOWS /D NDEBUG /D WIN32_LEAN_AND_MEAN /D OPENDDL_NO_USE_CPP11 /D NO_FSEEKO /D _CRT_SECURE_NO_DEPRECATE /D _CRT_NONSTDC_NO_DEPRECATE /D "CMAKE_INTDIR=\"Release\"" /D _MBCS /Gm- /MD /GS /fp:precise /Zc:wchar_t /Zc:forScope /Zc:inline /openmp /Fo"ZLIBSTATIC.DIR\RELEASE\\" /Fd"ZLIBSTATIC.DIR\RELEASE\ZLIBSTATIC.PDB" /Gd /TC /analyze- C:\USERS\IVAN\DOCUMENTS\DEMOSCENENEW\ASSIMP\CONTRIB\ZLIB\ADLER32.C
^C:\USERS\IVAN\DOCUMENTS\DEMOSCENENEW\ASSIMP\CONTRIB\ZLIB\COMPRESS.C
/c /IC:\USERS\IVAN\DOCUMENTS\DEMOSCENENEW\ASSIMP\. /IC:\USERS\IVAN\DOCUMENTS\DEMOSCENENEW\BUILD\ASSIMP /IC:\USERS\IVAN\DOCUMENTS\DEMOSCENENEW\BUILD\ASSIMP\INCLUDE /IC:\USERS\IVAN\DOCUMENTS\DEMOSCENENEW\ASSIMP\INCLUDE /IC:\USERS\IVAN\DOCUMENTS\DEMOSCENENEW\ASSIMP\CONTRIB\ZLIB /IC:\USERS\IVAN\DOCUMENTS\DEMOSCENENEW\BUILD\ASSIMP\CONTRIB\ZLIB /IC:\USERS\IVAN\DOCUMENTS\DEMOSCENENEW /nologo /W3 /WX- /diagnostics:classic /O2 /Ob2 /Oy- /D WIN32 /D _WINDOWS /D NDEBUG /D WIN32_LEAN_AND_MEAN /D OPENDDL_NO_USE_CPP11 /D NO_FSEEKO /D _CRT_SECURE_NO_DEPRECATE /D _CRT_NONSTDC_NO_DEPRECATE /D "CMAKE_INTDIR=\"Release\"" /D _MBCS /Gm- /MD /GS /fp:precise /Zc:wchar_t /Zc:forScope /Zc:inline /openmp /Fo"ZLIBSTATIC.DIR\RELEASE\\" /Fd"ZLIBSTATIC.DIR\RELEASE\ZLIBSTATIC.PDB" /Gd /TC /analyze- C:\USERS\IVAN\DOCUMENTS\DEMOSCENENEW\ASSIMP\CONTRIB\ZLIB\COMPRESS.C
^C:\USERS\IVAN\DOCUMENTS\DEMOSCENENEW\ASSIMP\CONTRIB\ZLIB\CRC32.C
/c /IC:\USERS\IVAN\DOCUMENTS\DEMOSCENENEW\ASSIMP\. /IC:\USERS\IVAN\DOCUMENTS\DEMOSCENENEW\BUILD\ASSIMP /IC:\USERS\IVAN\DOCUMENTS\DEMOSCENENEW\BUILD\ASSIMP\INCLUDE /IC:\USERS\IVAN\DOCUMENTS\DEMOSCENENEW\ASSIMP\INCLUDE /IC:\USERS\IVAN\DOCUMENTS\DEMOSCENENEW\ASSIMP\CONTRIB\ZLIB /IC:\USERS\IVAN\DOCUMENTS\DEMOSCENENEW\BUILD\ASSIMP\CONTRIB\ZLIB /IC:\USERS\IVAN\DOCUMENTS\DEMOSCENENEW /nologo /W3 /WX- /diagnostics:classic /O2 /Ob2 /Oy- /D WIN32 /D _WINDOWS /D NDEBUG /D WIN32_LEAN_AND_MEAN /D OPENDDL_NO_USE_CPP11 /D NO_FSEEKO /D _CRT_SECURE_NO_DEPRECATE /D _CRT_NONSTDC_NO_DEPRECATE /D "CMAKE_INTDIR=\"Release\"" /D _MBCS /Gm- /MD /GS /fp:precise /Zc:wchar_t /Zc:forScope /Zc:inline /openmp /Fo"ZLIBSTATIC.DIR\RELEASE\\" /Fd"ZLIBSTATIC.DIR\RELEASE\ZLIBSTATIC.PDB" /Gd /TC /analyze- C:\USERS\IVAN\DOCUMENTS\DEMOSCENENEW\ASSIMP\CONTRIB\ZLIB\CRC32.C
^C:\USERS\IVAN\DOCUMENTS\DEMOSCENENEW\ASSIMP\CONTRIB\ZLIB\DEFLATE.C
/c /IC:\USERS\IVAN\DOCUMENTS\DEMOSCENENEW\ASSIMP\. /IC:\USERS\IVAN\DOCUMENTS\DEMOSCENENEW\BUILD\ASSIMP /IC:\USERS\IVAN\DOCUMENTS\DEMOSCENENEW\BUILD\ASSIMP\INCLUDE /IC:\USERS\IVAN\DOCUMENTS\DEMOSCENENEW\ASSIMP\INCLUDE /IC:\USERS\IVAN\DOCUMENTS\DEMOSCENENEW\ASSIMP\CONTRIB\ZLIB /IC:\USERS\IVAN\DOCUMENTS\DEMOSCENENEW\BUILD\ASSIMP\CONTRIB\ZLIB /IC:\USERS\IVAN\DOCUMENTS\DEMOSCENENEW /nologo /W3 /WX- /diagnostics:classic /O2 /Ob2 /Oy- /D WIN32 /D _WINDOWS /D NDEBUG /D WIN32_LEAN_AND_MEAN /D OPENDDL_NO_USE_CPP11 /D NO_FSEEKO /D _CRT_SECURE_NO_DEPRECATE /D _CRT_NONSTDC_NO_DEPRECATE /D "CMAKE_INTDIR=\"Release\"" /D _MBCS /Gm- /MD /GS /fp:precise /Zc:wchar_t /Zc:forScope /Zc:inline /openmp /Fo"ZLIBSTATIC.DIR\RELEASE\\" /Fd"ZLIBSTATIC.DIR\RELEASE\ZLIBSTATIC.PDB" /Gd /TC /analyze- C:\USERS\IVAN\DOCUMENTS\DEMOSCENENEW\ASSIMP\CONTRIB\ZLIB\DEFLATE.C
^C:\USERS\IVAN\DOCUMENTS\DEMOSCENENEW\ASSIMP\CONTRIB\ZLIB\GZCLOSE.C
/c /IC:\USERS\IVAN\DOCUMENTS\DEMOSCENENEW\ASSIMP\. /IC:\USERS\IVAN\DOCUMENTS\DEMOSCENENEW\BUILD\ASSIMP /IC:\USERS\IVAN\DOCUMENTS\DEMOSCENENEW\BUILD\ASSIMP\INCLUDE /IC:\USERS\IVAN\DOCUMENTS\DEMOSCENENEW\ASSIMP\INCLUDE /IC:\USERS\IVAN\DOCUMENTS\DEMOSCENENEW\ASSIMP\CONTRIB\ZLIB /IC:\USERS\IVAN\DOCUMENTS\DEMOSCENENEW\BUILD\ASSIMP\CONTRIB\ZLIB /IC:\USERS\IVAN\DOCUMENTS\DEMOSCENENEW /nologo /W3 /WX- /diagnostics:classic /O2 /Ob2 /Oy- /D WIN32 /D _WINDOWS /D NDEBUG /D WIN32_LEAN_AND_MEAN /D OPENDDL_NO_USE_CPP11 /D NO_FSEEKO /D _CRT_SECURE_NO_DEPRECATE /D _CRT_NONSTDC_NO_DEPRECATE /D "CMAKE_INTDIR=\"Release\"" /D _MBCS /Gm- /MD /GS /fp:precise /Zc:wchar_t /Zc:forScope /Zc:inline /openmp /Fo"ZLIBSTATIC.DIR\RELEASE\\" /Fd"ZLIBSTATIC.DIR\RELEASE\ZLIBSTATIC.PDB" /Gd /TC /analyze- C:\USERS\IVAN\DOCUMENTS\DEMOSCENENEW\ASSIMP\CONTRIB\ZLIB\GZCLOSE.C
^C:\USERS\IVAN\DOCUMENTS\DEMOSCENENEW\ASSIMP\CONTRIB\ZLIB\GZLIB.C
/c /IC:\USERS\IVAN\DOCUMENTS\DEMOSCENENEW\ASSIMP\. /IC:\USERS\IVAN\DOCUMENTS\DEMOSCENENEW\BUILD\ASSIMP /IC:\USERS\IVAN\DOCUMENTS\DEMOSCENENEW\BUILD\ASSIMP\INCLUDE /IC:\USERS\IVAN\DOCUMENTS\DEMOSCENENEW\ASSIMP\INCLUDE /IC:\USERS\IVAN\DOCUMENTS\DEMOSCENENEW\ASSIMP\CONTRIB\ZLIB /IC:\USERS\IVAN\DOCUMENTS\DEMOSCENENEW\BUILD\ASSIMP\CONTRIB\ZLIB /IC:\USERS\IVAN\DOCUMENTS\DEMOSCENENEW /nologo /W3 /WX- /diagnostics:classic /O2 /Ob2 /Oy- /D WIN32 /D _WINDOWS /D NDEBUG /D WIN32_LEAN_AND_MEAN /D OPENDDL_NO_USE_CPP11 /D NO_FSEEKO /D _CRT_SECURE_NO_DEPRECATE /D _CRT_NONSTDC_NO_DEPRECATE /D "CMAKE_INTDIR=\"Release\"" /D _MBCS /Gm- /MD /GS /fp:precise /Zc:wchar_t /Zc:forScope /Zc:inline /openmp /Fo"ZLIBSTATIC.DIR\RELEASE\\" /Fd"ZLIBSTATIC.DIR\RELEASE\ZLIBSTATIC.PDB" /Gd /TC /analyze- C:\USERS\IVAN\DOCUMENTS\DEMOSCENENEW\ASSIMP\CONTRIB\ZLIB\GZLIB.C
^C:\USERS\IVAN\DOCUMENTS\DEMOSCENENEW\ASSIMP\CONTRIB\ZLIB\GZREAD.C
/c /IC:\USERS\IVAN\DOCUMENTS\DEMOSCENENEW\ASSIMP\. /IC:\USERS\IVAN\DOCUMENTS\DEMOSCENENEW\BUILD\ASSIMP /IC:\USERS\IVAN\DOCUMENTS\DEMOSCENENEW\BUILD\ASSIMP\INCLUDE /IC:\USERS\IVAN\DOCUMENTS\DEMOSCENENEW\ASSIMP\INCLUDE /IC:\USERS\IVAN\DOCUMENTS\DEMOSCENENEW\ASSIMP\CONTRIB\ZLIB /IC:\USERS\IVAN\DOCUMENTS\DEMOSCENENEW\BUILD\ASSIMP\CONTRIB\ZLIB /IC:\USERS\IVAN\DOCUMENTS\DEMOSCENENEW /nologo /W3 /WX- /diagnostics:classic /O2 /Ob2 /Oy- /D WIN32 /D _WINDOWS /D NDEBUG /D WIN32_LEAN_AND_MEAN /D OPENDDL_NO_USE_CPP11 /D NO_FSEEKO /D _CRT_SECURE_NO_DEPRECATE /D _CRT_NONSTDC_NO_DEPRECATE /D "CMAKE_INTDIR=\"Release\"" /D _MBCS /Gm- /MD /GS /fp:precise /Zc:wchar_t /Zc:forScope /Zc:inline /openmp /Fo"ZLIBSTATIC.DIR\RELEASE\\" /Fd"ZLIBSTATIC.DIR\RELEASE\ZLIBSTATIC.PDB" /Gd /TC /analyze- C:\USERS\IVAN\DOCUMENTS\DEMOSCENENEW\ASSIMP\CONTRIB\ZLIB\GZREAD.C
^C:\USERS\IVAN\DOCUMENTS\DEMOSCENENEW\ASSIMP\CONTRIB\ZLIB\GZWRITE.C
/c /IC:\USERS\IVAN\DOCUMENTS\DEMOSCENENEW\ASSIMP\. /IC:\USERS\IVAN\DOCUMENTS\DEMOSCENENEW\BUILD\ASSIMP /IC:\USERS\IVAN\DOCUMENTS\DEMOSCENENEW\BUILD\ASSIMP\INCLUDE /IC:\USERS\IVAN\DOCUMENTS\DEMOSCENENEW\ASSIMP\INCLUDE /IC:\USERS\IVAN\DOCUMENTS\DEMOSCENENEW\ASSIMP\CONTRIB\ZLIB /IC:\USERS\IVAN\DOCUMENTS\DEMOSCENENEW\BUILD\ASSIMP\CONTRIB\ZLIB /IC:\USERS\IVAN\DOCUMENTS\DEMOSCENENEW /nologo /W3 /WX- /diagnostics:classic /O2 /Ob2 /Oy- /D WIN32 /D _WINDOWS /D NDEBUG /D WIN32_LEAN_AND_MEAN /D OPENDDL_NO_USE_CPP11 /D NO_FSEEKO /D _CRT_SECURE_NO_DEPRECATE /D _CRT_NONSTDC_NO_DEPRECATE /D "CMAKE_INTDIR=\"Release\"" /D _MBCS /Gm- /MD /GS /fp:precise /Zc:wchar_t /Zc:forScope /Zc:inline /openmp /Fo"ZLIBSTATIC.DIR\RELEASE\\" /Fd"ZLIBSTATIC.DIR\RELEASE\ZLIBSTATIC.PDB" /Gd /TC /analyze- C:\USERS\IVAN\DOCUMENTS\DEMOSCENENEW\ASSIMP\CONTRIB\ZLIB\GZWRITE.C
^C:\USERS\IVAN\DOCUMENTS\DEMOSCENENEW\ASSIMP\CONTRIB\ZLIB\INFLATE.C
/c /IC:\USERS\IVAN\DOCUMENTS\DEMOSCENENEW\ASSIMP\. /IC:\USERS\IVAN\DOCUMENTS\DEMOSCENENEW\BUILD\ASSIMP /IC:\USERS\IVAN\DOCUMENTS\DEMOSCENENEW\BUILD\ASSIMP\INCLUDE /IC:\USERS\IVAN\DOCUMENTS\DEMOSCENENEW\ASSIMP\INCLUDE /IC:\USERS\IVAN\DOCUMENTS\DEMOSCENENEW\ASSIMP\CONTRIB\ZLIB /IC:\USERS\IVAN\DOCUMENTS\DEMOSCENENEW\BUILD\ASSIMP\CONTRIB\ZLIB /IC:\USERS\IVAN\DOCUMENTS\DEMOSCENENEW /nologo /W3 /WX- /diagnostics:classic /O2 /Ob2 /Oy- /D WIN32 /D _WINDOWS /D NDEBUG /D WIN32_LEAN_AND_MEAN /D OPENDDL_NO_USE_CPP11 /D NO_FSEEKO /D _CRT_SECURE_NO_DEPRECATE /D _CRT_NONSTDC_NO_DEPRECATE /D "CMAKE_INTDIR=\"Release\"" /D _MBCS /Gm- /MD /GS /fp:precise /Zc:wchar_t /Zc:forScope /Zc:inline /openmp /Fo"ZLIBSTATIC.DIR\RELEASE\\" /Fd"ZLIBSTATIC.DIR\RELEASE\ZLIBSTATIC.PDB" /Gd /TC /analyze- C:\USERS\IVAN\DOCUMENTS\DEMOSCENENEW\ASSIMP\CONTRIB\ZLIB\INFLATE.C
^C:\USERS\IVAN\DOCUMENTS\DEMOSCENENEW\ASSIMP\CONTRIB\ZLIB\INFBACK.C
/c /IC:\USERS\IVAN\DOCUMENTS\DEMOSCENENEW\ASSIMP\. /IC:\USERS\IVAN\DOCUMENTS\DEMOSCENENEW\BUILD\ASSIMP /IC:\USERS\IVAN\DOCUMENTS\DEMOSCENENEW\BUILD\ASSIMP\INCLUDE /IC:\USERS\IVAN\DOCUMENTS\DEMOSCENENEW\ASSIMP\INCLUDE /IC:\USERS\IVAN\DOCUMENTS\DEMOSCENENEW\ASSIMP\CONTRIB\ZLIB /IC:\USERS\IVAN\DOCUMENTS\DEMOSCENENEW\BUILD\ASSIMP\CONTRIB\ZLIB /IC:\USERS\IVAN\DOCUMENTS\DEMOSCENENEW /nologo /W3 /WX- /diagnostics:classic /O2 /Ob2 /Oy- /D WIN32 /D _WINDOWS /D NDEBUG /D WIN32_LEAN_AND_MEAN /D OPENDDL_NO_USE_CPP11 /D NO_FSEEKO /D _CRT_SECURE_NO_DEPRECATE /D _CRT_NONSTDC_NO_DEPRECATE /D "CMAKE_INTDIR=\"Release\"" /D _MBCS /Gm- /MD /GS /fp:precise /Zc:wchar_t /Zc:forScope /Zc:inline /openmp /Fo"ZLIBSTATIC.DIR\RELEASE\\" /Fd"ZLIBSTATIC.DIR\RELEASE\ZLIBSTATIC.PDB" /Gd /TC /analyze- C:\USERS\IVAN\DOCUMENTS\DEMOSCENENEW\ASSIMP\CONTRIB\ZLIB\INFBACK.C
^C:\USERS\IVAN\DOCUMENTS\DEMOSCENENEW\ASSIMP\CONTRIB\ZLIB\INFTREES.C
/c /IC:\USERS\IVAN\DOCUMENTS\DEMOSCENENEW\ASSIMP\. /IC:\USERS\IVAN\DOCUMENTS\DEMOSCENENEW\BUILD\ASSIMP /IC:\USERS\IVAN\DOCUMENTS\DEMOSCENENEW\BUILD\ASSIMP\INCLUDE /IC:\USERS\IVAN\DOCUMENTS\DEMOSCENENEW\ASSIMP\INCLUDE /IC:\USERS\IVAN\DOCUMENTS\DEMOSCENENEW\ASSIMP\CONTRIB\ZLIB /IC:\USERS\IVAN\DOCUMENTS\DEMOSCENENEW\BUILD\ASSIMP\CONTRIB\ZLIB /IC:\USERS\IVAN\DOCUMENTS\DEMOSCENENEW /nologo /W3 /WX- /diagnostics:classic /O2 /Ob2 /Oy- /D WIN32 /D _WINDOWS /D NDEBUG /D WIN32_LEAN_AND_MEAN /D OPENDDL_NO_USE_CPP11 /D NO_FSEEKO /D _CRT_SECURE_NO_DEPRECATE /D _CRT_NONSTDC_NO_DEPRECATE /D "CMAKE_INTDIR=\"Release\"" /D _MBCS /Gm- /MD /GS /fp:precise /Zc:wchar_t /Zc:forScope /Zc:inline /openmp /Fo"ZLIBSTATIC.DIR\RELEASE\\" /Fd"ZLIBSTATIC.DIR\RELEASE\ZLIBSTATIC.PDB" /Gd /TC /analyze- C:\USERS\IVAN\DOCUMENTS\DEMOSCENENEW\ASSIMP\CONTRIB\ZLIB\INFTREES.C
^C:\USERS\IVAN\DOCUMENTS\DEMOSCENENEW\ASSIMP\CONTRIB\ZLIB\INFFAST.C
/c /IC:\USERS\IVAN\DOCUMENTS\DEMOSCENENEW\ASSIMP\. /IC:\USERS\IVAN\DOCUMENTS\DEMOSCENENEW\BUILD\ASSIMP /IC:\USERS\IVAN\DOCUMENTS\DEMOSCENENEW\BUILD\ASSIMP\INCLUDE /IC:\USERS\IVAN\DOCUMENTS\DEMOSCENENEW\ASSIMP\INCLUDE /IC:\USERS\IVAN\DOCUMENTS\DEMOSCENENEW\ASSIMP\CONTRIB\ZLIB /IC:\USERS\IVAN\DOCUMENTS\DEMOSCENENEW\BUILD\ASSIMP\CONTRIB\ZLIB /IC:\USERS\IVAN\DOCUMENTS\DEMOSCENENEW /nologo /W3 /WX- /diagnostics:classic /O2 /Ob2 /Oy- /D WIN32 /D _WINDOWS /D NDEBUG /D WIN32_LEAN_AND_MEAN /D OPENDDL_NO_USE_CPP11 /D NO_FSEEKO /D _CRT_SECURE_NO_DEPRECATE /D _CRT_NONSTDC_NO_DEPRECATE /D "CMAKE_INTDIR=\"Release\"" /D _MBCS /Gm- /MD /GS /fp:precise /Zc:wchar_t /Zc:forScope /Zc:inline /openmp /Fo"ZLIBSTATIC.DIR\RELEASE\\" /Fd"ZLIBSTATIC.DIR\RELEASE\ZLIBSTATIC.PDB" /Gd /TC /analyze- C:\USERS\IVAN\DOCUMENTS\DEMOSCENENEW\ASSIMP\CONTRIB\ZLIB\INFFAST.C
^C:\USERS\IVAN\DOCUMENTS\DEMOSCENENEW\ASSIMP\CONTRIB\ZLIB\TREES.C
/c /IC:\USERS\IVAN\DOCUMENTS\DEMOSCENENEW\ASSIMP\. /IC:\USERS\IVAN\DOCUMENTS\DEMOSCENENEW\BUILD\ASSIMP /IC:\USERS\IVAN\DOCUMENTS\DEMOSCENENEW\BUILD\ASSIMP\INCLUDE /IC:\USERS\IVAN\DOCUMENTS\DEMOSCENENEW\ASSIMP\INCLUDE /IC:\USERS\IVAN\DOCUMENTS\DEMOSCENENEW\ASSIMP\CONTRIB\ZLIB /IC:\USERS\IVAN\DOCUMENTS\DEMOSCENENEW\BUILD\ASSIMP\CONTRIB\ZLIB /IC:\USERS\IVAN\DOCUMENTS\DEMOSCENENEW /nologo /W3 /WX- /diagnostics:classic /O2 /Ob2 /Oy- /D WIN32 /D _WINDOWS /D NDEBUG /D WIN32_LEAN_AND_MEAN /D OPENDDL_NO_USE_CPP11 /D NO_FSEEKO /D _CRT_SECURE_NO_DEPRECATE /D _CRT_NONSTDC_NO_DEPRECATE /D "CMAKE_INTDIR=\"Release\"" /D _MBCS /Gm- /MD /GS /fp:precise /Zc:wchar_t /Zc:forScope /Zc:inline /openmp /Fo"ZLIBSTATIC.DIR\RELEASE\\" /Fd"ZLIBSTATIC.DIR\RELEASE\ZLIBSTATIC.PDB" /Gd /TC /analyze- C:\USERS\IVAN\DOCUMENTS\DEMOSCENENEW\ASSIMP\CONTRIB\ZLIB\TREES.C
^C:\USERS\IVAN\DOCUMENTS\DEMOSCENENEW\ASSIMP\CONTRIB\ZLIB\UNCOMPR.C
/c /IC:\USERS\IVAN\DOCUMENTS\DEMOSCENENEW\ASSIMP\. /IC:\USERS\IVAN\DOCUMENTS\DEMOSCENENEW\BUILD\ASSIMP /IC:\USERS\IVAN\DOCUMENTS\DEMOSCENENEW\BUILD\ASSIMP\INCLUDE /IC:\USERS\IVAN\DOCUMENTS\DEMOSCENENEW\ASSIMP\INCLUDE /IC:\USERS\IVAN\DOCUMENTS\DEMOSCENENEW\ASSIMP\CONTRIB\ZLIB /IC:\USERS\IVAN\DOCUMENTS\DEMOSCENENEW\BUILD\ASSIMP\CONTRIB\ZLIB /IC:\USERS\IVAN\DOCUMENTS\DEMOSCENENEW /nologo /W3 /WX- /diagnostics:classic /O2 /Ob2 /Oy- /D WIN32 /D _WINDOWS /D NDEBUG /D WIN32_LEAN_AND_MEAN /D OPENDDL_NO_USE_CPP11 /D NO_FSEEKO /D _CRT_SECURE_NO_DEPRECATE /D _CRT_NONSTDC_NO_DEPRECATE /D "CMAKE_INTDIR=\"Release\"" /D _MBCS /Gm- /MD /GS /fp:precise /Zc:wchar_t /Zc:forScope /Zc:inline /openmp /Fo"ZLIBSTATIC.DIR\RELEASE\\" /Fd"ZLIBSTATIC.DIR\RELEASE\ZLIBSTATIC.PDB" /Gd /TC /analyze- C:\USERS\IVAN\DOCUMENTS\DEMOSCENENEW\ASSIMP\CONTRIB\ZLIB\UNCOMPR.C
^C:\USERS\IVAN\DOCUMENTS\DEMOSCENENEW\ASSIMP\CONTRIB\ZLIB\ZUTIL.C
/c /IC:\USERS\IVAN\DOCUMENTS\DEMOSCENENEW\ASSIMP\. /IC:\USERS\IVAN\DOCUMENTS\DEMOSCENENEW\BUILD\ASSIMP /IC:\USERS\IVAN\DOCUMENTS\DEMOSCENENEW\BUILD\ASSIMP\INCLUDE /IC:\USERS\IVAN\DOCUMENTS\DEMOSCENENEW\ASSIMP\INCLUDE /IC:\USERS\IVAN\DOCUMENTS\DEMOSCENENEW\ASSIMP\CONTRIB\ZLIB /IC:\USERS\IVAN\DOCUMENTS\DEMOSCENENEW\BUILD\ASSIMP\CONTRIB\ZLIB /IC:\USERS\IVAN\DOCUMENTS\DEMOSCENENEW /nologo /W3 /WX- /diagnostics:classic /O2 /Ob2 /Oy- /D WIN32 /D _WINDOWS /D NDEBUG /D WIN32_LEAN_AND_MEAN /D OPENDDL_NO_USE_CPP11 /D NO_FSEEKO /D _CRT_SECURE_NO_DEPRECATE /D _CRT_NONSTDC_NO_DEPRECATE /D "CMAKE_INTDIR=\"Release\"" /D _MBCS /Gm- /MD /GS /fp:precise /Zc:wchar_t /Zc:forScope /Zc:inline /openmp /Fo"ZLIBSTATIC.DIR\RELEASE\\" /Fd"ZLIBSTATIC.DIR\RELEASE\ZLIBSTATIC.PDB" /Gd /TC /analyze- C:\USERS\IVAN\DOCUMENTS\DEMOSCENENEW\ASSIMP\CONTRIB\ZLIB\ZUTIL.C
