^C:\USERS\IVAN\DOCUMENTS\DEMOSCENENEW\ASSIMP\CONTRIB\ZLIB\ADLER32.C|C:\USERS\IVAN\DOCUMENTS\DEMOSCENENEW\ASSIMP\CONTRIB\ZLIB\COMPRESS.C|C:\USERS\IVAN\DOCUMENTS\DEMOSCENENEW\ASSIMP\CONTRIB\ZLIB\CRC32.C|C:\USERS\IVAN\DOCUMENTS\DEMOSCENENEW\ASSIMP\CONTRIB\ZLIB\DEFLATE.C|C:\USERS\IVAN\DOCUMENTS\DEMOSCENENEW\ASSIMP\CONTRIB\ZLIB\GZCLOSE.C|C:\USERS\IVAN\DOCUMENTS\DEMOSCENENEW\ASSIMP\CONTRIB\ZLIB\GZLIB.C|C:\USERS\IVAN\DOCUMENTS\DEMOSCENENEW\ASSIMP\CONTRIB\ZLIB\GZREAD.C|C:\USERS\IVAN\DOCUMENTS\DEMOSCENENEW\ASSIMP\CONTRIB\ZLIB\GZWRITE.C|C:\USERS\IVAN\DOCUMENTS\DEMOSCENENEW\ASSIMP\CONTRIB\ZLIB\INFBACK.C|C:\USERS\IVAN\DOCUMENTS\DEMOSCENENEW\ASSIMP\CONTRIB\ZLIB\INFFAST.C|C:\USERS\IVAN\DOCUMENTS\DEMOSCENENEW\ASSIMP\CONTRIB\ZLIB\INFLATE.C|C:\USERS\IVAN\DOCUMENTS\DEMOSCENENEW\ASSIMP\CONTRIB\ZLIB\INFTREES.C|C:\USERS\IVAN\DOCUMENTS\DEMOSCENENEW\ASSIMP\CONTRIB\ZLIB\TREES.C|C:\USERS\IVAN\DOCUMENTS\DEMOSCENENEW\ASSIMP\CONTRIB\ZLIB\UNCOMPR.C|C:\USERS\IVAN\DOCUMENTS\DEMOSCENENEW\ASSIMP\CONTRIB\ZLIB\ZUTIL.C
C:\USERS\IVAN\DOCUMENTS\DEMOSCENENEW\BUILD\ASSIMP\CONTRIB\ZLIB\ZLIBSTATIC.DIR\RELEASE\CRC32.OBJ
C:\USERS\IVAN\DOCUMENTS\DEMOSCENENEW\BUILD\ASSIMP\CONTRIB\ZLIB\ZLIBSTATIC.DIR\RELEASE\GZREAD.OBJ
C:\USERS\IVAN\DOCUMENTS\DEMOSCENENEW\BUILD\ASSIMP\CONTRIB\ZLIB\ZLIBSTATIC.DIR\RELEASE\INFBACK.OBJ
C:\USERS\IVAN\DOCUMENTS\DEMOSCENENEW\BUILD\ASSIMP\CONTRIB\ZLIB\ZLIBSTATIC.DIR\RELEASE\TREES.OBJ
C:\USERS\IVAN\DOCUMENTS\DEMOSCENENEW\BUILD\ASSIMP\CONTRIB\ZLIB\ZLIBSTATIC.DIR\RELEASE\ADLER32.OBJ
C:\USERS\IVAN\DOCUMENTS\DEMOSCENENEW\BUILD\ASSIMP\CONTRIB\ZLIB\ZLIBSTATIC.DIR\RELEASE\GZLIB.OBJ
C:\USERS\IVAN\DOCUMENTS\DEMOSCENENEW\BUILD\ASSIMP\CONTRIB\ZLIB\ZLIBSTATIC.DIR\RELEASE\INFLATE.OBJ
C:\USERS\IVAN\DOCUMENTS\DEMOSCENENEW\BUILD\ASSIMP\CONTRIB\ZLIB\ZLIBSTATIC.DIR\RELEASE\COMPRESS.OBJ
C:\USERS\IVAN\DOCUMENTS\DEMOSCENENEW\BUILD\ASSIMP\CONTRIB\ZLIB\ZLIBSTATIC.DIR\RELEASE\GZCLOSE.OBJ
C:\USERS\IVAN\DOCUMENTS\DEMOSCENENEW\BUILD\ASSIMP\CONTRIB\ZLIB\ZLIBSTATIC.DIR\RELEASE\GZWRITE.OBJ
C:\USERS\IVAN\DOCUMENTS\DEMOSCENENEW\BUILD\ASSIMP\CONTRIB\ZLIB\ZLIBSTATIC.DIR\RELEASE\INFFAST.OBJ
C:\USERS\IVAN\DOCUMENTS\DEMOSCENENEW\BUILD\ASSIMP\CONTRIB\ZLIB\ZLIBSTATIC.DIR\RELEASE\UNCOMPR.OBJ
C:\USERS\IVAN\DOCUMENTS\DEMOSCENENEW\BUILD\ASSIMP\CONTRIB\ZLIB\ZLIBSTATIC.DIR\RELEASE\DEFLATE.OBJ
C:\USERS\IVAN\DOCUMENTS\DEMOSCENENEW\BUILD\ASSIMP\CONTRIB\ZLIB\ZLIBSTATIC.DIR\RELEASE\INFTREES.OBJ
C:\USERS\IVAN\DOCUMENTS\DEMOSCENENEW\BUILD\ASSIMP\CONTRIB\ZLIB\ZLIBSTATIC.DIR\RELEASE\ZUTIL.OBJ
