^C:\USERS\IVAN\DOCUMENTS\DEMOSCENENEW\ASSIMP\CONTRIB\ZLIB\ADLER32.C|C:\USERS\IVAN\DOCUMENTS\DEMOSCENENEW\ASSIMP\CONTRIB\ZLIB\COMPRESS.C|C:\USERS\IVAN\DOCUMENTS\DEMOSCENENEW\ASSIMP\CONTRIB\ZLIB\CRC32.C|C:\USERS\IVAN\DOCUMENTS\DEMOSCENENEW\ASSIMP\CONTRIB\ZLIB\DEFLATE.C|C:\USERS\IVAN\DOCUMENTS\DEMOSCENENEW\ASSIMP\CONTRIB\ZLIB\GZCLOSE.C|C:\USERS\IVAN\DOCUMENTS\DEMOSCENENEW\ASSIMP\CONTRIB\ZLIB\GZLIB.C|C:\USERS\IVAN\DOCUMENTS\DEMOSCENENEW\ASSIMP\CONTRIB\ZLIB\GZREAD.C|C:\USERS\IVAN\DOCUMENTS\DEMOSCENENEW\ASSIMP\CONTRIB\ZLIB\GZWRITE.C|C:\USERS\IVAN\DOCUMENTS\DEMOSCENENEW\ASSIMP\CONTRIB\ZLIB\INFBACK.C|C:\USERS\IVAN\DOCUMENTS\DEMOSCENENEW\ASSIMP\CONTRIB\ZLIB\INFFAST.C|C:\USERS\IVAN\DOCUMENTS\DEMOSCENENEW\ASSIMP\CONTRIB\ZLIB\INFLATE.C|C:\USERS\IVAN\DOCUMENTS\DEMOSCENENEW\ASSIMP\CONTRIB\ZLIB\INFTREES.C|C:\USERS\IVAN\DOCUMENTS\DEMOSCENENEW\ASSIMP\CONTRIB\ZLIB\TREES.C|C:\USERS\IVAN\DOCUMENTS\DEMOSCENENEW\ASSIMP\CONTRIB\ZLIB\UNCOMPR.C|C:\USERS\IVAN\DOCUMENTS\DEMOSCENENEW\ASSIMP\CONTRIB\ZLIB\ZUTIL.C
C:\USERS\IVAN\DOCUMENTS\DEMOSCENENEW\BUILD\ASSIMP\CONTRIB\ZLIB\ZLIBSTATIC.DIR\DEBUG\ADLER32.OBJ
C:\USERS\IVAN\DOCUMENTS\DEMOSCENENEW\BUILD\ASSIMP\CONTRIB\ZLIB\ZLIBSTATIC.DIR\DEBUG\GZLIB.OBJ
C:\USERS\IVAN\DOCUMENTS\DEMOSCENENEW\BUILD\ASSIMP\CONTRIB\ZLIB\ZLIBSTATIC.DIR\DEBUG\INFBACK.OBJ
C:\USERS\IVAN\DOCUMENTS\DEMOSCENENEW\BUILD\ASSIMP\CONTRIB\ZLIB\ZLIBSTATIC.DIR\DEBUG\TREES.OBJ
C:\USERS\IVAN\DOCUMENTS\DEMOSCENENEW\BUILD\ASSIMP\CONTRIB\ZLIB\ZLIBSTATIC.DIR\DEBUG\COMPRESS.OBJ
C:\USERS\IVAN\DOCUMENTS\DEMOSCENENEW\BUILD\ASSIMP\CONTRIB\ZLIB\ZLIBSTATIC.DIR\DEBUG\GZCLOSE.OBJ
C:\USERS\IVAN\DOCUMENTS\DEMOSCENENEW\BUILD\ASSIMP\CONTRIB\ZLIB\ZLIBSTATIC.DIR\DEBUG\INFLATE.OBJ
C:\USERS\IVAN\DOCUMENTS\DEMOSCENENEW\BUILD\ASSIMP\CONTRIB\ZLIB\ZLIBSTATIC.DIR\DEBUG\UNCOMPR.OBJ
C:\USERS\IVAN\DOCUMENTS\DEMOSCENENEW\BUILD\ASSIMP\CONTRIB\ZLIB\ZLIBSTATIC.DIR\DEBUG\DEFLATE.OBJ
C:\USERS\IVAN\DOCUMENTS\DEMOSCENENEW\BUILD\ASSIMP\CONTRIB\ZLIB\ZLIBSTATIC.DIR\DEBUG\GZWRITE.OBJ
C:\USERS\IVAN\DOCUMENTS\DEMOSCENENEW\BUILD\ASSIMP\CONTRIB\ZLIB\ZLIBSTATIC.DIR\DEBUG\INFFAST.OBJ
C:\USERS\IVAN\DOCUMENTS\DEMOSCENENEW\BUILD\ASSIMP\CONTRIB\ZLIB\ZLIBSTATIC.DIR\DEBUG\CRC32.OBJ
C:\USERS\IVAN\DOCUMENTS\DEMOSCENENEW\BUILD\ASSIMP\CONTRIB\ZLIB\ZLIBSTATIC.DIR\DEBUG\GZREAD.OBJ
C:\USERS\IVAN\DOCUMENTS\DEMOSCENENEW\BUILD\ASSIMP\CONTRIB\ZLIB\ZLIBSTATIC.DIR\DEBUG\INFTREES.OBJ
C:\USERS\IVAN\DOCUMENTS\DEMOSCENENEW\BUILD\ASSIMP\CONTRIB\ZLIB\ZLIBSTATIC.DIR\DEBUG\ZUTIL.OBJ
^C:\USERS\IVAN\DOCUMENTS\DEMOSCENENEW\ASSIMP\CONTRIB\ZLIB\ADLER32.C
C:\USERS\IVAN\DOCUMENTS\DEMOSCENENEW\BUILD\ASSIMP\CONTRIB\ZLIB\ZLIBSTATIC.DIR\DEBUG\ZLIBSTATIC.PDB
^C:\USERS\IVAN\DOCUMENTS\DEMOSCENENEW\ASSIMP\CONTRIB\ZLIB\COMPRESS.C
C:\USERS\IVAN\DOCUMENTS\DEMOSCENENEW\BUILD\ASSIMP\CONTRIB\ZLIB\ZLIBSTATIC.DIR\DEBUG\ZLIBSTATIC.PDB
^C:\USERS\IVAN\DOCUMENTS\DEMOSCENENEW\ASSIMP\CONTRIB\ZLIB\CRC32.C
C:\USERS\IVAN\DOCUMENTS\DEMOSCENENEW\BUILD\ASSIMP\CONTRIB\ZLIB\ZLIBSTATIC.DIR\DEBUG\ZLIBSTATIC.PDB
^C:\USERS\IVAN\DOCUMENTS\DEMOSCENENEW\ASSIMP\CONTRIB\ZLIB\DEFLATE.C
C:\USERS\IVAN\DOCUMENTS\DEMOSCENENEW\BUILD\ASSIMP\CONTRIB\ZLIB\ZLIBSTATIC.DIR\DEBUG\ZLIBSTATIC.PDB
^C:\USERS\IVAN\DOCUMENTS\DEMOSCENENEW\ASSIMP\CONTRIB\ZLIB\GZCLOSE.C
C:\USERS\IVAN\DOCUMENTS\DEMOSCENENEW\BUILD\ASSIMP\CONTRIB\ZLIB\ZLIBSTATIC.DIR\DEBUG\ZLIBSTATIC.PDB
^C:\USERS\IVAN\DOCUMENTS\DEMOSCENENEW\ASSIMP\CONTRIB\ZLIB\GZLIB.C
C:\USERS\IVAN\DOCUMENTS\DEMOSCENENEW\BUILD\ASSIMP\CONTRIB\ZLIB\ZLIBSTATIC.DIR\DEBUG\ZLIBSTATIC.PDB
^C:\USERS\IVAN\DOCUMENTS\DEMOSCENENEW\ASSIMP\CONTRIB\ZLIB\GZREAD.C
C:\USERS\IVAN\DOCUMENTS\DEMOSCENENEW\BUILD\ASSIMP\CONTRIB\ZLIB\ZLIBSTATIC.DIR\DEBUG\ZLIBSTATIC.PDB
^C:\USERS\IVAN\DOCUMENTS\DEMOSCENENEW\ASSIMP\CONTRIB\ZLIB\GZWRITE.C
C:\USERS\IVAN\DOCUMENTS\DEMOSCENENEW\BUILD\ASSIMP\CONTRIB\ZLIB\ZLIBSTATIC.DIR\DEBUG\ZLIBSTATIC.PDB
^C:\USERS\IVAN\DOCUMENTS\DEMOSCENENEW\ASSIMP\CONTRIB\ZLIB\INFLATE.C
C:\USERS\IVAN\DOCUMENTS\DEMOSCENENEW\BUILD\ASSIMP\CONTRIB\ZLIB\ZLIBSTATIC.DIR\DEBUG\ZLIBSTATIC.PDB
^C:\USERS\IVAN\DOCUMENTS\DEMOSCENENEW\ASSIMP\CONTRIB\ZLIB\INFBACK.C
C:\USERS\IVAN\DOCUMENTS\DEMOSCENENEW\BUILD\ASSIMP\CONTRIB\ZLIB\ZLIBSTATIC.DIR\DEBUG\ZLIBSTATIC.PDB
^C:\USERS\IVAN\DOCUMENTS\DEMOSCENENEW\ASSIMP\CONTRIB\ZLIB\INFTREES.C
C:\USERS\IVAN\DOCUMENTS\DEMOSCENENEW\BUILD\ASSIMP\CONTRIB\ZLIB\ZLIBSTATIC.DIR\DEBUG\ZLIBSTATIC.PDB
^C:\USERS\IVAN\DOCUMENTS\DEMOSCENENEW\ASSIMP\CONTRIB\ZLIB\INFFAST.C
C:\USERS\IVAN\DOCUMENTS\DEMOSCENENEW\BUILD\ASSIMP\CONTRIB\ZLIB\ZLIBSTATIC.DIR\DEBUG\ZLIBSTATIC.PDB
^C:\USERS\IVAN\DOCUMENTS\DEMOSCENENEW\ASSIMP\CONTRIB\ZLIB\TREES.C
C:\USERS\IVAN\DOCUMENTS\DEMOSCENENEW\BUILD\ASSIMP\CONTRIB\ZLIB\ZLIBSTATIC.DIR\DEBUG\ZLIBSTATIC.PDB
^C:\USERS\IVAN\DOCUMENTS\DEMOSCENENEW\ASSIMP\CONTRIB\ZLIB\UNCOMPR.C
C:\USERS\IVAN\DOCUMENTS\DEMOSCENENEW\BUILD\ASSIMP\CONTRIB\ZLIB\ZLIBSTATIC.DIR\DEBUG\ZLIBSTATIC.PDB
^C:\USERS\IVAN\DOCUMENTS\DEMOSCENENEW\ASSIMP\CONTRIB\ZLIB\ZUTIL.C
C:\USERS\IVAN\DOCUMENTS\DEMOSCENENEW\BUILD\ASSIMP\CONTRIB\ZLIB\ZLIBSTATIC.DIR\DEBUG\ZLIBSTATIC.PDB
